final_project_1
…
d1 %>%
  filter(stu_grp == "Asian" |
           stu_grp == "White" |
           stu_grp == "Multi-Racial" |
           stu_grp == "Native Hawaiian/Pacific Islander" |
           stu_grp == "Hispanic/Latino" |
           stu_grp == "Black/African American" |
           stu_grp == "American Indian/Alaska Native") %>%
  group_by(county) 

## # A tibble: 1,869 x 9
## # Groups:   county [37]
##    county district_id district inst_id inst_name inst_type stu_grp_type stu_grp
##    <chr>  <chr>       <chr>    <chr>   <chr>     <chr>     <chr>        <chr>  
##  1 All C 9999        Statewi 9999    Statewide State     Race/Ethnic Asian  
##  2 All C 9999        Statewi 9999    Statewide State     Race/Ethnic Black/
##  3 All C 9999        Statewi 9999    Statewide State     Race/Ethnic Hispan
##  4 All C 9999        Statewi 9999    Statewide State     Race/Ethnic Americ
##  5 All C 9999        Statewi 9999    Statewide State     Race/Ethnic Multi-
##  6 All C 9999        Statewi 9999    Statewide State     Race/Ethnic Native
##  7 All C 9999        Statewi 9999    Statewide State     Race/Ethnic White  
##  8 Baker  1894        Baker S 1894    Baker SD District  Race/Ethnic Hispan
##  9 Baker  1894        Baker S 1894    Baker SD District  Race/Ethnic Multi-
## 10 Baker  1894        Baker S 1894    Baker SD District  Race/Ethnic White  
## #  with 1,859 more rows, and 1 more variable: avg_self_reg <dbl>
…
